<?xml version="1.0" encoding="UTF-8" standalone="no"?>
<svg
   xmlns:dc="http://purl.org/dc/elements/1.1/"
   xmlns:cc="http://creativecommons.org/ns#"
   xmlns:rdf="http://www.w3.org/1999/02/22-rdf-syntax-ns#"
   xmlns:svg="http://www.w3.org/2000/svg"
   xmlns="http://www.w3.org/2000/svg"
   xmlns:xlink="http://www.w3.org/1999/xlink"
   xmlns:sodipodi="http://sodipodi.sourceforge.net/DTD/sodipodi-0.dtd"
   xmlns:inkscape="http://www.inkscape.org/namespaces/inkscape"
   id="7cb65ff9-83d6-4c27-84bd-175819b7b352"
   data-name="Layer 1"
   width="201.81825"
   height="255.70959"
   viewBox="0 0 201.81825 255.70959"
   version="1.1"
   sodipodi:docname="code3.svg"
   inkscape:version="0.92.4 (5da689c313, 2019-01-14)">
  <metadata
     id="metadata554">
    <rdf:RDF>
      <cc:Work
         rdf:about="">
        <dc:format>image/svg+xml</dc:format>
        <dc:type
           rdf:resource="http://purl.org/dc/dcmitype/StillImage" />
        <dc:title>group chat</dc:title>
      </cc:Work>
    </rdf:RDF>
  </metadata>
  <sodipodi:namedview
     pagecolor="#ffffff"
     bordercolor="#666666"
     borderopacity="1"
     objecttolerance="10"
     gridtolerance="10"
     guidetolerance="10"
     inkscape:pageopacity="0"
     inkscape:pageshadow="2"
     inkscape:window-width="1858"
     inkscape:window-height="1016"
     id="namedview552"
     showgrid="false"
     inkscape:zoom="0.30463011"
     inkscape:cx="674.04359"
     inkscape:cy="387.40807"
     inkscape:window-x="62"
     inkscape:window-y="27"
     inkscape:window-maximized="1"
     inkscape:current-layer="7cb65ff9-83d6-4c27-84bd-175819b7b352" />
  <defs
     id="defs11">
    <linearGradient
       id="98b21c62-7d99-43a8-afc3-391cbfa317a4"
       x1="158.36"
       y1="837.35999"
       x2="158.36"
       y2="581.62"
       gradientUnits="userSpaceOnUse">
      <stop
         offset="0"
         stop-color="gray"
         stop-opacity="0.25"
         id="stop2" />
      <stop
         offset="0.54"
         stop-color="gray"
         stop-opacity="0.12"
         id="stop4" />
      <stop
         offset="1"
         stop-color="gray"
         stop-opacity="0.1"
         id="stop6" />
    </linearGradient>
    <linearGradient
       id="cac3e8da-e13c-4a6e-8683-059d4d6396e6"
       x1="-1003.13"
       y1="469.48999"
       x2="-1003.13"
       y2="167.61"
       gradientTransform="matrix(-1,0,0,1,-573.82,0)"
       xlink:href="#98b21c62-7d99-43a8-afc3-391cbfa317a4" />
    <linearGradient
       id="3d39174d-c81e-4005-9f1d-e2bf56b40b54"
       x1="980.32001"
       y1="824.83002"
       x2="980.32001"
       y2="557.01001"
       xlink:href="#98b21c62-7d99-43a8-afc3-391cbfa317a4" />
    <linearGradient
       inkscape:collect="always"
       xlink:href="#98b21c62-7d99-43a8-afc3-391cbfa317a4"
       id="linearGradient556"
       gradientUnits="userSpaceOnUse"
       x1="158.36"
       y1="837.35999"
       x2="158.36"
       y2="581.62"
       gradientTransform="translate(-57.263193,-581.69349)" />
  </defs>
  <title
     id="title13">group chat</title>
  <path
     d="m 175.51681,180.53651 c 0,0 -15.65,3.77 -21.85,10.87 a 21.25,21.25 0 0 1 -8.34,5.3 v -10.72 c 3.58,-6 7.2,-12.7 7.2,-12.7 0.16,-0.33 1.46,-4.94 1.46,-4.94 2.94,-2.31 -0.16,-10.38 -0.16,-10.38 0,0 1.79,-5.11 0.82,-6.1 -0.97,-0.99 -0.17,-3.62 0.65,-4.77 a 6,6 0 0 0 0.65,-3.63 c 0,-1 -1.3,-2.47 -3.42,-3.29 -2.12,-0.82 0.16,-2.14 1.46,-2.47 1.3,-0.33 1.63,-3.46 0.17,-5.11 -1.46,-1.65 0.16,-2.63 1,-4.45 0.84,-1.82 -2.6,-1.48 -2.6,-1.48 v -16.63 0 c 0,0 -1,-5.44 -2,-15 -1,-9.56 -4.73,-10.54 -4.73,-10.54 a 42.37,42.37 0 0 1 -5.87,-2.31 40.63,40.63 0 0 0 -6.2,-2.3 31.66,31.66 0 0 1 -8,-1.11 24.65,24.65 0 0 0 -5.46,-1.18 l -0.56,-0.29 a 21.4,21.4 0 0 1 -9.9,-10.49 c -0.1,-0.22 -0.19,-0.45 -0.28,-0.67 a 23.94,23.94 0 0 0 2.61,-3.46 v 0 c 0,0.17 0,0.34 0,0.51 v 0.21 c 0,0.41 0,0.81 0,1.22 v 0 0 c 2.61,-4.6 10.15,-5.65 10.87,-10.89 a 5.81,5.81 0 0 0 0.05,-0.72 v 0 c 0,-0.18 0,-0.36 0,-0.53 -0.1,-1.47 -0.6,-2.93 -0.7,-4.41 a 9,9 0 0 1 0,-1.27 v 0 c 0.33,-4.07 3.41,-7.61 4.81,-11.57 a 14.46,14.46 0 0 0 0.74,-3.3 v 0 c 0,-0.34 0.06,-0.68 0.07,-1 a 2.09,2.09 0 0 1 0,-0.25 c 0,-0.24 0,-0.48 0,-0.71 a 15.44,15.44 0 0 0 -5.09,-11.14 c -2.6,-2.26 -6,-3.68 -7.84,-6.63 -0.84,-1.37 -1.25,-3.0000001 -2.17,-4.3200001 -1.72,-2.49 -4.89,-3.51 -7.88,-3.87 -2.99,-0.36 -6.080003,-0.24 -8.950003,-1.19 -2,-0.66 -3.88,-1.84000004 -5.93,-2.44000004 a 11.34,11.34 0 0 0 -12.19,4.40000004 c -1.08,1.58 -1.79,3.47 -3.25,4.7 -3,2.5200001 -8.06,1.4300001 -10.68,4.3400001 -1.44,1.6 -1.6,3.78 -1.43,6 v 0.08 c 0,0.17 0,0.35 0,0.52 0,0.17 0,0.16 0,0.24 v 0.26 c 0.09,0.8 0.21,1.59 0.31,2.36 0,0.12 0,0.24 0,0.35 0,0.11 0.06,0.48 0.08,0.72 0.02,0.24 0,0.35 0,0.52 0,0.17 0,0.43 0,0.65 0,0.22 0,0.34 0,0.51 a 35,35 0 0 1 -3.74,17.56 c -2.46,4.85 -6.13,9.31 -6.77,14.72 a 14.9,14.9 0 0 0 -0.07,2.67 c 0,0.1 0,0.21 0,0.31 0,0.1 0,0.32 0,0.48 l 0.06,0.55 c 0,0.11 0,0.21 0,0.32 0,0.11 0.07,0.48 0.11,0.73 v 0.15 c 0.65,3.69 2.12,7.33 2.9,11 a 30.61,30.61 0 0 1 0.58,4.16 v 0 c 0,0.45 0,0.89 0.06,1.34 0.06,0.45 0,1.21 0,1.81 a 30.19,30.19 0 0 1 -3.81,1.17 c -2.28,0.33 -9,6.26 -8.48,7.74 0.52,1.48 -3,11.88 -3.09,12.18 v 0 l -5.5,37.89 c 0,0 -2.91,2.8 -2,4.61 0.91,1.81 -0.17,4.94 -0.17,4.94 0,0 -4.91,2.14 -3.82,3.46 1.09,1.32 0.59,3.79 -0.16,5.44 -0.75,1.65 -2,4.61 0,5.1 2,0.49 0.34,6.92 0.34,6.92 0,0 6.88,-0.79 6.38,3.3 -0.16,1.3 4.81,4.88 6.89,6.31 v 19.68 a 59.65,59.65 0 0 1 -8.16,-2.77 c -4.24,-2 -28.0500001,-5.76 -33.2700001,5.6 -5.22,11.36 7.18,26.52 10.2800001,28.17 a 21.3,21.3 0 0 1 3.58,3.46 c 0.66,1.15 4.41,1.48 4.41,1.48 0,0 3.91,1.82 4.89,2.8 0.72,0.73 6.68,2.63 13.76,4.1 v 0 c 0,0 -5.7,13.14 3.61,12.06 9.31,-1.08 13.85,-5.67 20.42,-5.67 2.62,0 7.49,-0.36 12.4,-0.8 a 31.72,31.72 0 0 1 3.65,0.86 47.24,47.24 0 0 0 8.48,1.81 c 0,0 7.34,4 11.25,3 a 2.57,2.57 0 0 0 0.89,-0.47 h 0.09 a 5.27,5.27 0 0 0 2.360003,-2 c 4.9,0.5 10.48,1.21 12.58,2 4.06,1.57 33.07,-0.6 33.07,-0.6 0,0 18.75,0.37 24.12,2 5.37,1.63 3.46,-16.58 -6.45,-18.63 a 39.9,39.9 0 0 0 -8.06,-0.71 18.59,18.59 0 0 0 1.87,-2.28 c 3.57,-0.33 5.92,-0.53 5.92,-0.53 0,0 9.46,-4.61 14.84,-7.41 a 34,34 0 0 0 9.14,-7.25 c 0,0 4.73,-3 6.68,-4.11 1.95,-1.11 2.94,-5 2.94,-5 15.21,-33.6 -22.47,-29.15 -22.47,-29.15 z m -42.47,-42.16 v -1.66 c 0.52,0.38 0.45,0.97 0,1.66 z m 0.15,11.65 c 0.4,0.52 0.78,1 1.06,1.35 1,1.35 -0.86,2 -0.72,4.28 0,0.51 0.08,1.21 0.12,2 v 0 c -0.2,-3.25 -0.36,-5.95 -0.46,-7.63 z"
     id="path153"
     inkscape:connector-curvature="0"
     style="fill:url(#linearGradient556)" />
  <path
     d="m 48.296807,202.01651 c 0,0 -9.14,-2.12 -13.38,-4.08 -4.24,-1.96 -28.0500001,-5.71 -33.2700001,5.55 -5.22,11.26 7.18,26.26 10.2800001,27.89 3.1,1.63 33.27,-20.72 33.27,-20.72 l 23.81,10 4.57,-15.58 z"
     id="path155"
     inkscape:connector-curvature="0"
     style="fill:#65617d" />
  <rect
     x="58.366806"
     y="205.10648"
     width="103.62"
     height="36.049999"
     rx="16.59"
     ry="16.59"
     id="rect157"
     style="fill:#65617d" />
  <path
     d="m 161.98681,223.13651 a 18,18 0 0 1 -18,18 H 76.386807 a 18.025,18.025 0 0 1 0,-36.05 h 67.570003 a 18,18 0 0 1 18,18 z"
     id="path159"
     inkscape:connector-curvature="0"
     style="opacity:0.1" />
  <path
     d="m 105.56681,224.18651 c 0,0 -10.390003,2.67 -18.870003,2.55 -8.48,-0.12 -48.14,16.36 -48.14,16.36 0,0 -5.7,13 3.61,11.94 9.31,-1.06 13.85,-5.61 20.42,-5.61 6.57,0 27.22,-2.27 27.22,-2.27 l 19.930003,-14.69 z"
     id="path161"
     inkscape:connector-curvature="0"
     style="fill:#fbbebe" />
  <path
     d="m 112.06681,101.37651 -18.630003,3.68 -1.21,0.24 c 0,0 -14.74,-3.92 -15.23,-4.25 -0.49,-0.33 -13.86,-18.35 -13.86,-18.35 0,0 6.76,0.08 12.08,-3 a 6.42,6.42 0 0 0 0.56,-0.34 11.75,11.75 0 0 0 5,-6.15 c 0.09,-0.27 0.18,-0.55 0.26,-0.84 a 16.64,16.64 0 0 0 -0.16,-8 c -1.8,-7.6 2.37,-9.69 7.94,-9.51 8,0.26 19.000003,5.28 19.000003,5.28 a 22.24,22.24 0 0 0 1.72,7.43 c 0.09,0.23 0.19,0.45 0.28,0.67 a 21.27,21.27 0 0 0 9.9,10.38 l 0.59,0.29 a 19.83,19.83 0 0 0 1.87,0.8 c 14.2,5.36 -10.11,21.67 -10.11,21.67 z"
     id="path163"
     inkscape:connector-curvature="0"
     style="fill:#fbbebe" />
  <path
     d="m 109.82681,68.21651 a 23.49,23.49 0 0 1 -29.000003,5 15.8,15.8 0 0 0 0.1,-8.87 c -4.4,-18.59 26.910003,-4.23 26.910003,-4.23 a 22.71,22.71 0 0 0 1.99,8.1 z"
     id="path165"
     inkscape:connector-curvature="0"
     style="opacity:0.1" />
  <path
     d="m 115.73681,51.69651 a 23.49,23.49 0 0 1 -22.060003,23.44 c -0.47,0 -0.95,0 -1.42,0 a 23.49,23.49 0 1 1 23.480003,-23.44 z"
     id="path167"
     inkscape:connector-curvature="0"
     style="fill:#fbbebe" />
  <path
     d="m 112.06681,101.37651 -18.630003,3.68 -1.21,0.24 c 0,0 -14.74,-3.92 -15.23,-4.25 -0.49,-0.33 -13.86,-18.35 -13.86,-18.35 0,0 6.76,0.08 12.08,-3 a 6.42,6.42 0 0 0 0.56,-0.34 21.9,21.9 0 0 0 15.9,7 22.94,22.94 0 0 0 3.32,-0.27 c 2.62,-0.4 5.260003,-0.66 7.900003,-0.93 5.05,-0.53 12.78,-2.06 16.83,-6.53 l 0.59,0.29 a 19.83,19.83 0 0 0 1.87,0.8 c 14.19,5.35 -10.12,21.66 -10.12,21.66 z"
     id="path169"
     inkscape:connector-curvature="0"
     style="opacity:0.1" />
  <path
     d="m 133.11681,149.00651 c 0.16,3.59 2.77,44 2.77,44 H 54.496807 l 0.55,-25.47 0.44,-20.37 0.15,-6.68 0.65,-23.16 -2.35,-2.02 -12.82,-11.3 v 0 c 0.1,-0.31 3.57,-10.62 3.09,-12.07 -0.48,-1.45 6.2,-7.34 8.48,-7.66 a 30.21,30.21 0 0 0 3.83,-1.17 c 3.85,-1.35 9,-3.34 9.55,-3 0.8,0.43 8.8,-0.31 9.14,-0.35 v 0 a 21.8,21.8 0 0 0 16.47,7.55 21.56,21.56 0 0 0 3.32,-0.26 c 2.62,-0.4 5.260003,-0.66 7.900003,-0.93 5.3,-0.56 13.55,-2.22 17.42,-7.22 a 24.88,24.88 0 0 1 5.46,1.17 31.93,31.93 0 0 0 8,1.1 40.7,40.7 0 0 1 6.2,2.28 43.13,43.13 0 0 0 5.87,2.28 c 0,0 3.75,1 4.73,10.44 0.98,9.44 2,14.85 2,14.85 l -19.41,16.8 c 0,0 -0.22,17.6 -0.05,21.19 z"
     id="path171"
     inkscape:connector-curvature="0"
     style="fill:#fbb12c" />
  <polygon
     points="84.49,686.65 73.64,682.41 67.45,686 70.38,696.27 73.23,700.84 83.92,704.61 91.26,691.22 "
     id="polygon173"
     style="fill:#fbbebe"
     transform="translate(-29.263193,-519.05349)" />
  <path
     d="m 132.29681,199.73651 c 0,0 15.17,-1.15 21.37,-8.16 6.2,-7.01 21.85,-10.76 21.85,-10.76 0,0 37.68,-4.41 22.84,28.87 0,0 -1,3.75 -2.94,4.89 -1.94,1.14 -6.68,4.08 -6.68,4.08 l -57.9,-5.06 z"
     id="path175"
     inkscape:connector-curvature="0"
     style="fill:#65617d" />
  <path
     d="m 161.98681,223.13651 a 18,18 0 0 1 -3,10 c -9.74,0.87 -31.31,2.9 -35.82,4.15 -5.55,1.54 -16.77,-1.14 -18,-1.44 h -0.11 c 0,0 -2.16,-6.56 -3.19,-10.76 -0.47,-1.9 -0.7,-3.32 -0.4,-3.43 1,-0.32 10,-2.77 9.79,-1.39 -0.21,1.38 26.91,-10.52 26.91,-10.52 l 0.83,10.44 c 2.74,3.12 22.99,-1.58 22.99,2.95 z"
     id="path177"
     inkscape:connector-curvature="0"
     style="opacity:0.1" />
  <path
     d="m 189.87681,214.41651 -1.14,4.24 a 33.9,33.9 0 0 1 -9.14,7.17 c -5.38,2.78 -14.84,7.34 -14.84,7.34 0,0 -34.74,2.94 -40.62,4.57 -5.88,1.63 -18.1,-1.43 -18.1,-1.43 0,0 -4.57,-13.86 -3.59,-14.19 0.98,-0.33 9.95,-2.77 9.79,-1.38 -0.16,1.39 26.91,-10.52 26.91,-10.52 z"
     id="path179"
     inkscape:connector-curvature="0"
     style="fill:#65617d" />
  <path
     d="m 93.146807,250.97651 c 0,0 17.080003,1.2 21.140003,2.75 4.06,1.55 33.07,-0.6 33.07,-0.6 0,0 18.75,0.37 24.12,2 5.37,1.63 3.46,-16.42 -6.45,-18.45 -9.91,-2.03 -23.88,1 -23.88,1 l -17.67,-2.37 c -1.91,-0.24 -14.5,0.12 -14.5,0.12 z"
     id="path181"
     inkscape:connector-curvature="0"
     style="fill:#fbbebe" />
  <path
     d="m 26.046807,205.96651 c 0,0 22.57,2 28.77,5.73 z"
     id="path183"
     inkscape:connector-curvature="0"
     style="opacity:0.1" />
  <path
     d="m 166.81681,191.15651 c 0,0 -17.67,4.3 -24.59,10.63 z"
     id="path185"
     inkscape:connector-curvature="0"
     style="opacity:0.1" />
  <path
     d="m 27.356807,200.82651 c 0.36,0.12 10.39,1.44 10.15,2.39 -0.24,0.95 -10.15,-2.39 -10.15,-2.39 z"
     id="path187"
     inkscape:connector-curvature="0"
     style="opacity:0.1" />
  <path
     d="m 11.596807,225.99651 1.3,4.89 c 0,0 2.94,2.28 3.59,3.43 0.65,1.15 4.41,1.46 4.41,1.46 0,0 3.91,1.8 4.89,2.78 0.98,0.98 11.58,4.07 21.53,5.38 9.95,1.31 28.38,3.75 32.3,5 a 46.76,46.76 0 0 0 8.48,1.8 c 0,0 7.34,3.91 11.25,2.93 3.910003,-0.98 10.600003,-18.75 10.600003,-18.75 0,0 -25.770003,-6 -26.580003,-8 -0.81,-2 -25.63,-11.03 -25.63,-11.03 l -14.68,0.35 z"
     id="path189"
     inkscape:connector-curvature="0"
     style="opacity:0.1" />
  <path
     d="m 10.616807,226.48651 1.31,4.89 a 21.06,21.06 0 0 1 3.58,3.42 c 0.66,1.15 4.41,1.47 4.41,1.47 0,0 3.91,1.8 4.89,2.78 0.98,0.98 11.58,4.07 21.53,5.38 9.95,1.31 28.38,3.75 32.3,5 a 46.76,46.76 0 0 0 8.48,1.8 c 0,0 7.34,3.91 11.25,2.93 3.910003,-0.98 10.610003,-18.75 10.610003,-18.75 0,0 -25.780003,-6 -26.590003,-8 -0.81,-2 -37.19,-16.8 -37.19,-16.8 l -11.46,-2.56 z"
     id="path191"
     inkscape:connector-curvature="0"
     style="fill:#65617d" />
  <path
     d="m 43.966807,102.35651 -2.85,1.63 -5.5,37.52 c 0,0 -2.91,2.77 -2,4.56 0.91,1.79 -0.17,4.9 -0.17,4.9 0,0 -4.91,2.12 -3.82,3.42 1.09,1.3 0.59,3.75 -0.16,5.38 -0.75,1.63 -2,4.57 0,5.06 2,0.49 0.34,6.85 0.34,6.85 0,0 6.88,-0.78 6.38,3.26 -0.21,1.63 7.78,6.85 7.78,6.85 0,0 -9.08,-16.48 11.26,-14.19 l 1.75,-9.28 c 0,0 1.75,-5.23 0,-6.86 -1.75,-1.63 0.4,-9.38 0.4,-9.38 l 0.38,-33.68 z"
     id="path193"
     inkscape:connector-curvature="0"
     style="fill:#fbb12c" />
  <path
     d="m 39.536807,150.80651 c 0.36,0.59 11.34,1.81 12.06,3.77 0.72,1.96 -12.06,-3.77 -12.06,-3.77 z"
     id="path195"
     inkscape:connector-curvature="0"
     style="opacity:0.1" />
  <path
     d="m 36.076807,160.11651 c 0,0 1.49,-4.66 5,-3.82 3.51,0.84 -5,3.82 -5,3.82 z"
     id="path197"
     inkscape:connector-curvature="0"
     style="opacity:0.1" />
  <path
     d="m 34.166807,166.91651 c 0,0 2.63,-6.2 6.21,-5.73 3.58,0.47 -6.21,5.73 -6.21,5.73 z"
     id="path199"
     inkscape:connector-curvature="0"
     style="opacity:0.1" />
  <path
     d="m 153.66681,166.78651 -1.14,6.85 c 0,0 -11.79,21.53 -13.87,21.86 -2.08,0.33 -13.7,-14.36 -13.7,-14.36 l -3.1,-14.35 12.2,-2.31 5.42,-5.36 c 0,0 13.7,1.31 14.19,7.67 z"
     id="path201"
     inkscape:connector-curvature="0"
     style="fill:#fbbebe" />
  <path
     d="m 148.11681,107.90651 4.41,3.1 v 16.47 c 0,0 3.42,-0.33 2.6,1.47 -0.82,1.8 -2.44,2.77 -1,4.4 1.44,1.63 1.14,4.73 -0.17,5.06 -1.31,0.33 -3.59,1.63 -1.46,2.44 2.13,0.81 3.42,2.29 3.42,3.27 a 5.88,5.88 0 0 1 -0.65,3.58 c -0.82,1.15 -1.63,3.76 -0.65,4.73 0.98,0.97 -0.82,6 -0.82,6 0,0 3.1,8 0.16,10.28 0,0 -1.3,4.56 -1.46,4.89 0,0 2.05,-15.88 -18.47,-9.16 l -0.52,-8.3 c -0.14,-2.24 1.77,-2.9 0.72,-4.23 -1.05,-1.33 -3.7,-4.41 -2.45,-5.22 1.25,-0.81 0.82,-2.29 0.33,-3.43 -0.49,-1.14 -2.22,-1.14 -0.66,-2.53 1.56,-1.39 2.49,-2.69 1.57,-3.34 -0.92,-0.65 -2.51,-2.78 -1.24,-3.75 1.27,-0.97 1.31,-15.17 1.31,-15.17 0,0 5.24,-20.84 15.03,-10.56 z"
     id="path203"
     inkscape:connector-curvature="0"
     style="fill:#fbb12c" />
  <path
     d="m 146.04681,135.96651 c 0,0 6.27,-1.7 6.48,0 0.21,1.7 -6.48,0 -6.48,0 z"
     id="path205"
     inkscape:connector-curvature="0"
     style="opacity:0.1" />
  <path
     d="m 138.99681,140.65651 c 0,0 8.6,-2.15 9.67,-0.48 1.07,1.67 -9.67,0.48 -9.67,0.48 z"
     id="path207"
     inkscape:connector-curvature="0"
     style="opacity:0.1" />
  <path
     d="m 137.08681,145.18651 c 0,0 12.9,-1.79 13.73,0.84 0.83,2.63 -13.73,-0.84 -13.73,-0.84 z"
     id="path209"
     inkscape:connector-curvature="0"
     style="opacity:0.1" />
  <path
     d="m 138.99681,150.80651 c 0.48,0.11 12.42,1 12.66,3.22 0.24,2.22 -12.66,-3.22 -12.66,-3.22 z"
     id="path211"
     inkscape:connector-curvature="0"
     style="opacity:0.1" />
  <rect
     x="43.076805"
     y="158.14651"
     width="102.25"
     height="58.080002"
     rx="10.47"
     ry="10.47"
     id="rect213"
     style="fill:#3f3d56" />
  <circle
     cx="94.20681"
     cy="187.18649"
     r="3.77"
     id="circle215"
     style="fill:#e7effd" />
  <path
     d="m 60.206807,122.55651 c 0,0 9.8,7.49 17.37,1.78 0,-0.03 -12.84,1.17 -17.37,-1.78 z"
     id="path217"
     inkscape:connector-curvature="0"
     style="opacity:0.1" />
  <path
     d="m 109.82681,124.57651 c 0,0 9.8,7.49 17.38,1.78 0,0 -12.81,1.16 -17.38,-1.78 z"
     id="path219"
     inkscape:connector-curvature="0"
     style="opacity:0.1" />
  <path
     d="m 115.73681,51.69651 a 23.42,23.42 0 0 1 -3.55,12.43 35.86,35.86 0 0 0 -5.3,-18.55 c -3.26,-5 -13.160003,-13.78 -20.000003,-11.33 a 4.86,4.86 0 0 0 -3,3.2 c -0.67,2.56 1.31,3.63 2.57,5.67 a 17.39,17.39 0 0 1 2.38,11.72 14.58,14.58 0 0 1 -0.35,1.62 c -1.07,4 -3.52,8.63 -1,11.93 1.77,2.3 5.56,3.09 6.08,5.95 a 3.62,3.62 0 0 1 0,0.8 c -0.12,1.92 -1.76,3.62 -2.47,5.5 -0.85,2.23 -0.37,4.43 0.5,6.66 1.13,2.92 2.94,5.86 3.38,8.93 0.44,3.07 -0.51,5.93 -1.62,8.83 a 39.26,39.26 0 0 0 -2.7,8.3 c -0.78,5.42 1.2,11.69 -2.21,16 a 2.34,2.34 0 0 1 -1.49,1 c -2.19,0.23 -1.81,-3.69 -3.57,-5 0.18,2.29 0.36,4.67 -0.47,6.81 -0.83,2.14 -3,3.94 -5.25,3.59 -0.26,-1.71 -0.52,-3.42 -0.77,-5.13 a 14.93,14.93 0 0 1 -5.44,3.4 39.72,39.72 0 0 1 5.67,-15.35 c -5.74,2.77 -9.09,8.75 -12.08,14.38 -1.87,3.52 -3.79,7.37 -3.14,11.3 0.26,1.6 1,3.12 1.1,4.73 0.1,1.61 -0.43,3.5 -1.93,4.11 a 3.51,3.51 0 0 1 -3.79,-1.17 l -0.16,-0.2 -0.26,-0.36 a 5.93,5.93 0 0 1 -0.43,-0.78 14.68,14.68 0 0 1 -0.92,-3 l -0.11,-0.44 c -1.51,-6.67 -2.88,-13.54 -1.77,-20.29 0.41,-2.48 1.16,-4.94 1.07,-7.46 a 13.7,13.7 0 0 0 -0.85,-4.17 c -1.33,-3.73 -3.9,-7.16 -5.36,-10.91 a 0.32,0.32 0 0 1 0,-0.09 c -0.77,-2 -1.15,-4.47 0.27,-6.07 a 12.16,12.16 0 0 1 2.72,-1.84 c 2.84,-1.85 4.12,-5.36 4.63,-8.71 a 29.35,29.35 0 0 0 0.36,-4.58 c 3.85,-1.35 9,-3.34 9.55,-3 0.8,0.43 8.8,-0.31 9.14,-0.35 a 11.92,11.92 0 0 0 5.6,-6.49 c 0.09,-0.27 0.18,-0.55 0.26,-0.84 a 23.49,23.49 0 1 1 34.710003,-20.75 z"
     id="path221"
     inkscape:connector-curvature="0"
     style="opacity:0.1" />
  <path
     d="m 88.506807,55.47651 c -1.07,4 -3.52,8.63 -1,11.93 1.77,2.3 5.56,3.09 6.08,5.95 0.4,2.26 -1.61,4.16 -2.42,6.31 -1.94,5.12 3.11,10.16 3.87,15.58 0.84,5.89 -3.45,11.25 -4.31,17.13 -0.78,5.42 1.2,11.69 -2.21,16 a 2.39,2.39 0 0 1 -1.49,1 c -2.19,0.23 -1.82,-3.7 -3.57,-5 0.19,2.28 0.36,4.66 -0.47,6.8 -0.83,2.14 -3,3.95 -5.25,3.59 l -0.77,-5.13 a 14.93,14.93 0 0 1 -5.44,3.4 39.77,39.77 0 0 1 5.67,-15.35 c -5.74,2.77 -9.09,8.75 -12.08,14.38 -1.87,3.52 -3.79,7.37 -3.14,11.29 0.26,1.61 1,3.13 1.1,4.74 0.1,1.61 -0.43,3.5 -1.93,4.11 a 3.57,3.57 0 0 1 -4,-1.36 10.26,10.26 0 0 1 -1.61,-4.15 c -1.56,-6.8 -3,-13.83 -1.88,-20.73 0.41,-2.48 1.16,-4.94 1.07,-7.46 -0.2,-5.51 -4.26,-10 -6.25,-15.16 -0.77,-2 -1.14,-4.48 0.28,-6.08 a 12.33,12.33 0 0 1 2.73,-1.84 c 2.83,-1.85 4.11,-5.36 4.63,-8.71 a 30.21,30.21 0 0 0 -0.31,-10.89 c -1.15,-5.37 -3.77,-10.6 -3.12,-16 0.65,-5.4 4.31,-9.77 6.77,-14.57 a 34.43,34.43 0 0 0 3.5,-20.15 c -0.43,-3.21 -1.17,-6.94 1,-9.34 2.62,-2.88 7.69,-1.8 10.68,-4.3 1.46,-1.22 2.17,-3.0900001 3.25,-4.6600001 a 11.41,11.41 0 0 1 12.19,-4.35 c 2.05,0.59 3.9,1.76 5.93,2.42 2.87,0.93 5.950003,0.81 8.950003,1.17 3,0.36 6.16,1.37 7.88,3.84 0.92,1.3100001 1.33,2.9200001 2.17,4.2800001 1.8,2.92 5.24,4.32 7.84,6.56 a 15.23,15.23 0 0 1 4.28,16.25 c -1.55,4.33 -5.14,8.15 -4.84,12.73 0.13,1.89 0.93,3.73 0.67,5.6 -0.72,5.2 -8.26,6.23 -10.87,10.79 0.21,-7.47 -1.22,-15.16 -5.3,-21.41 -3.26,-5 -13.160003,-13.78 -20.000003,-11.34 a 4.86,4.86 0 0 0 -3,3.2 c -0.67,2.56 1.3,3.63 2.57,5.67 a 17.26,17.26 0 0 1 2.15,13.26 z"
     id="path223"
     inkscape:connector-curvature="0"
     style="fill:#3f3d56" />
  <g
     id="g251"
     style="opacity:0.2"
     transform="translate(-29.263193,-519.05349)">
    <path
       d="m 113.78,663 a 30.34,30.34 0 0 0 -0.65,-7 c -1,-4.56 -3,-9 -3.2,-13.61 -0.26,5.1 2.12,10 3.2,15.08 a 30,30 0 0 1 0.65,5.53 z"
       transform="translate(-28,-62.64)"
       id="path225"
       inkscape:connector-curvature="0" />
    <path
       d="m 133.22,700.07 c 0.4,-0.73 0.81,-1.45 1.25,-2.15 -5.74,2.76 -9.09,8.75 -12.08,14.38 -1.73,3.25 -3.5,6.79 -3.24,10.42 0.22,-3.11 1.75,-6.14 3.24,-9 2.77,-5.16 5.84,-10.67 10.83,-13.65 z"
       transform="translate(-28,-62.64)"
       id="path227"
       inkscape:connector-curvature="0" />
    <path
       d="m 120.33,729.57 a 3.49,3.49 0 0 1 -1.91,2.87 3.58,3.58 0 0 1 -4,-1.37 10.42,10.42 0 0 1 -1.61,-4.14 74.13,74.13 0 0 1 -2.27,-14.81 c -0.11,5.44 1,10.93 2.27,16.28 a 10.42,10.42 0 0 0 1.61,4.14 3.56,3.56 0 0 0 4,1.36 c 1.5,-0.61 2.09,-2.49 1.94,-4.11 z"
       transform="translate(-28,-62.64)"
       id="path229"
       inkscape:connector-curvature="0" />
    <path
       d="m 146.3,632.27 a 15.75,15.75 0 0 1 -0.53,3.47 c -0.79,3 -2.34,6.28 -2.06,9.13 0.22,-2.48 1.4,-5.18 2.06,-7.67 a 16.37,16.37 0 0 0 0.53,-4.93 z"
       transform="translate(-28,-62.64)"
       id="path231"
       inkscape:connector-curvature="0" />
    <path
       d="m 120.56,610.49 a 33.45,33.45 0 0 0 -0.28,-5.2 c -0.17,-1.27 -0.38,-2.62 -0.45,-3.94 a 29.86,29.86 0 0 0 0.45,5.41 33.25,33.25 0 0 1 0.28,3.73 z"
       transform="translate(-28,-62.64)"
       id="path233"
       inkscape:connector-curvature="0" />
    <path
       d="m 150.86,655.08 v -0.11 c -0.35,1.7 -1.75,3.25 -2.39,4.95 a 6.92,6.92 0 0 0 -0.4,3.19 6.31,6.31 0 0 1 0.4,-1.72 c 0.78,-2.15 2.79,-4.05 2.39,-6.31 z"
       transform="translate(-28,-62.64)"
       id="path235"
       inkscape:connector-curvature="0" />
    <path
       d="m 112.05,698.73 c -0.2,-5.51 -4.26,-10 -6.24,-15.16 a 9.75,9.75 0 0 1 -0.64,-2.51 8.35,8.35 0 0 0 0.64,4 c 2,5.05 5.9,9.5 6.22,14.89 0.02,-0.42 0.03,-0.82 0.02,-1.22 z"
       transform="translate(-28,-62.64)"
       id="path237"
       inkscape:connector-curvature="0" />
    <path
       d="m 164.13,624.86 c -3.26,-5 -13.17,-13.78 -20,-11.34 a 4.82,4.82 0 0 0 -3,3.2 3.51,3.51 0 0 0 -0.06,1.72 1.83,1.83 0 0 1 0.06,-0.25 4.82,4.82 0 0 1 3,-3.2 c 6.81,-2.44 16.72,6.33 20,11.34 3.69,5.66 5.2,12.51 5.3,19.29 0.11,-7.26 -1.35,-14.68 -5.3,-20.76 z"
       transform="translate(-28,-62.64)"
       id="path239"
       inkscape:connector-curvature="0" />
    <path
       d="m 180.29,635.48 c -0.71,5.19 -8.23,6.23 -10.85,10.76 0,0.5 0,1 0,1.5 2.61,-4.55 10.15,-5.59 10.87,-10.79 a 6.61,6.61 0 0 0 0,-1.54 c 0,0 -0.01,0.05 -0.02,0.07 z"
       transform="translate(-28,-62.64)"
       id="path241"
       inkscape:connector-curvature="0" />
    <path
       d="m 184.46,617.16 c -1.55,4.32 -5.14,8.14 -4.84,12.73 v 0.2 c 0.33,-4 3.41,-7.55 4.81,-11.47 a 14.12,14.12 0 0 0 0.8,-5.58 13.87,13.87 0 0 1 -0.77,4.12 z"
       transform="translate(-28,-62.64)"
       id="path243"
       inkscape:connector-curvature="0" />
    <path
       d="m 145.79,708.61 a 2.37,2.37 0 0 1 -1.49,1 c -2.19,0.23 -1.81,-3.7 -3.57,-5 0,0.52 0.08,1 0.11,1.57 1.62,1.41 1.33,5.14 3.46,4.92 a 2.37,2.37 0 0 0 1.49,-1 c 2,-2.45 2.14,-5.54 2.09,-8.75 -0.05,2.65 -0.44,5.19 -2.09,7.26 z"
       transform="translate(-28,-62.64)"
       id="path245"
       inkscape:connector-curvature="0" />
    <path
       d="m 140.26,711.4 c -0.82,2.14 -3,4 -5.24,3.59 l -0.78,-5.13 a 14.89,14.89 0 0 1 -5.16,3.3 c -0.1,0.52 -0.2,1.05 -0.28,1.57 a 14.93,14.93 0 0 0 5.44,-3.4 l 0.78,5.13 c 2.26,0.36 4.42,-1.45 5.24,-3.59 a 11.52,11.52 0 0 0 0.61,-4.64 9.75,9.75 0 0 1 -0.61,3.17 z"
       transform="translate(-28,-62.64)"
       id="path247"
       inkscape:connector-curvature="0" />
    <path
       d="m 148,692.64 a 25.83,25.83 0 0 0 -0.2,4.15 19.65,19.65 0 0 1 0.2,-2.68 c 0.81,-5.61 4.74,-10.75 4.39,-16.31 -0.31,5.01 -3.64,9.73 -4.39,14.84 z"
       transform="translate(-28,-62.64)"
       id="path249"
       inkscape:connector-curvature="0" />
  </g>
</svg>
