<?xml version="1.0" encoding="UTF-8" standalone="no"?>
<svg
   xmlns:dc="http://purl.org/dc/elements/1.1/"
   xmlns:cc="http://creativecommons.org/ns#"
   xmlns:rdf="http://www.w3.org/1999/02/22-rdf-syntax-ns#"
   xmlns:svg="http://www.w3.org/2000/svg"
   xmlns="http://www.w3.org/2000/svg"
   xmlns:sodipodi="http://sodipodi.sourceforge.net/DTD/sodipodi-0.dtd"
   xmlns:inkscape="http://www.inkscape.org/namespaces/inkscape"
   id="e87ddc62-7528-42a5-8b37-f74ed0351019"
   data-name="Layer 1"
   width="688.56427"
   height="615.5"
   viewBox="0 0 688.56427 615.5"
   version="1.1"
   sodipodi:docname="code2.svg"
   inkscape:version="0.92.4 (5da689c313, 2019-01-14)">
  <metadata
     id="metadata143">
    <rdf:RDF>
      <cc:Work
         rdf:about="">
        <dc:format>image/svg+xml</dc:format>
        <dc:type
           rdf:resource="http://purl.org/dc/dcmitype/StillImage" />
        <dc:title>software engineer</dc:title>
      </cc:Work>
    </rdf:RDF>
  </metadata>
  <defs
     id="defs141" />
  <sodipodi:namedview
     pagecolor="#ffffff"
     bordercolor="#666666"
     borderopacity="1"
     objecttolerance="10"
     gridtolerance="10"
     guidetolerance="10"
     inkscape:pageopacity="0"
     inkscape:pageshadow="2"
     inkscape:window-width="1858"
     inkscape:window-height="1016"
     id="namedview139"
     showgrid="false"
     inkscape:zoom="0.82184656"
     inkscape:cx="-7.1583634"
     inkscape:cy="550.56937"
     inkscape:window-x="62"
     inkscape:window-y="27"
     inkscape:window-maximized="1"
     inkscape:current-layer="e87ddc62-7528-42a5-8b37-f74ed0351019" />
  <title
     id="title2">software engineer</title>
  <polygon
     points="842.79,606.582 841.768,604.994 838.809,600.39 875.964,399.572 881.604,397.21 894.984,391.611 852.078,606.582 "
     id="polygon50"
     style="fill:#47465a"
     transform="translate(-367.86993,-174.20611)" />
  <polygon
     points="838.809,600.39 875.964,399.572 881.604,397.21 841.768,604.994 "
     id="polygon52"
     style="opacity:0.1"
     transform="translate(-367.86993,-174.20611)" />
  <polygon
     points="945.852,688.855 942.313,680.893 881.604,403.96 887.916,402.545 901.177,399.572 959.564,684.432 948.533,687.988 "
     id="polygon54"
     style="fill:#47465a"
     transform="translate(-367.86993,-174.20611)" />
  <polygon
     points="942.313,680.893 881.604,403.96 887.916,402.545 948.533,687.988 945.852,688.855 "
     id="polygon56"
     style="opacity:0.1"
     transform="translate(-367.86993,-174.20611)" />
  <polygon
     points="412.753,672.754 411.962,672.931 408.865,667.181 415.058,394.264 421.016,393.415 433.636,391.611 423.905,670.277 "
     id="polygon58"
     style="fill:#47465a"
     transform="translate(-367.86993,-174.20611)" />
  <polygon
     points="411.962,672.931 408.865,667.181 415.058,394.264 421.016,393.415 412.753,672.754 "
     id="polygon60"
     style="opacity:0.1"
     transform="translate(-367.86993,-174.20611)" />
  <polygon
     points="478.753,771.128 475.215,763.609 419.039,399.572 420.658,399.081 429.213,396.476 491.581,768.917 480.045,770.907 "
     id="polygon62"
     style="fill:#47465a"
     transform="translate(-367.86993,-174.20611)" />
  <polygon
     points="475.215,763.609 419.039,399.572 420.658,399.081 480.045,770.907 478.753,771.128 "
     id="polygon64"
     style="opacity:0.1"
     transform="translate(-367.86993,-174.20611)" />
  <path
     d="m 367.87618,194.84566 42.95118,54.88207 a 13.9279,13.9279 0 0 0 12.58842,5.24947 l 176.31789,-20.64984 a 13.92791,13.92791 0 0 0 12.3078,-13.83336 v -40.6875 z"
     id="path66"
     inkscape:connector-curvature="0"
     style="fill:#7a799c" />
  <path
     d="m 512.51757,203.69224 h 11.94287 v 17.23649 a 4.4376,4.4376 0 0 1 -4.4376,4.4376 h -3.06767 a 4.4376,4.4376 0 0 1 -4.4376,-4.4376 z"
     id="path68"
     inkscape:connector-curvature="0"
     style="fill:#47465a" />
  <path
     d="m 51.16907,229.78961 42.95118,54.88206 a 13.92791,13.92791 0 0 0 12.58842,5.24948 l 176.3179,-20.64984 a 13.92793,13.92793 0 0 0 12.30775,-13.83337 v -40.6875 z"
     id="path70"
     inkscape:connector-curvature="0"
     style="fill:#7a799c" />
  <path
     d="m 195.81042,238.63618 h 11.94287 v 17.23649 a 4.4376,4.4376 0 0 1 -4.4376,4.4376 h -3.06762 a 4.4376,4.4376 0 0 1 -4.4376,-4.4376 v -17.23649 z"
     id="path72"
     inkscape:connector-curvature="0"
     style="fill:#47465a" />
  <path
     d="m 100.51482,257.58506 524.45935,-61.09027 a 7.71254,7.71254 0 0 0 2.5775,-14.54866 L 533.73489,134.76426 A 108.58678,108.58678 0 0 0 473.93242,123.74718 L 7.9905697,171.25674 a 8.91843,8.91843 0 0 0 -5.45875,15.09495 L 56.79093,242.02013 a 52.67339,52.67339 0 0 0 43.72389,15.56493 z"
     id="path74"
     inkscape:connector-curvature="0"
     style="fill:#47465a" />
  <path
     d="m 682.67377,188.21539 -5.61,-3.101 c 0,0 -6.0563,4.45811 -10.99,23.23965 -4.9337,18.78154 9.2207,0.20375 9.2207,0.20375 l 6.1926,-12.82752 z"
     id="path76"
     inkscape:connector-curvature="0"
     style="fill:#47465a" />
  <path
     d="m 622.65737,360.27649 c 0,0 -5.7503,26.982 -8.4043,34.50162 -1.3004,3.68018 -7.5815,7.04629 -14.5437,9.62064 a 97.37869,97.37869 0 0 1 -19.07322,4.9762 c -7.51958,0.88466 -103.94718,-14.15451 -150.834,-24.32806 -31.58664,-6.85167 -35.66943,-14.71185 -34.97051,-19.1086 a 6.37978,6.37978 0 0 1 1.79588,-3.45015 c 0,0 46.44448,-31.40532 62.81063,-46.44449 16.36615,-15.03917 48.65613,-3.0963 84.0424,3.0963 35.38627,6.1926 79.17682,41.13654 79.17682,41.13654 z"
     id="path78"
     inkscape:connector-curvature="0"
     style="fill:#47465a" />
  <path
     d="m 677.06377,185.11444 c 0,0 21.6741,14.15451 -51.3101,43.34818 0,0 -39.66902,22.36656 -34.50511,114.50318 a 25.26971,25.26971 0 0 0 3.673,11.702 c 7.53021,12.3852 23.66631,43.73743 -3.22723,47.62992 v 7.07722 c 0,0 48.65614,-24.32806 53.96404,-45.1175 5.308,-20.78944 23.0011,-136.23715 31.8477,-146.853 8.8465,-10.61585 14.5968,-27.42439 -0.4423,-32.29 z"
     id="path80"
     inkscape:connector-curvature="0"
     style="fill:#47465a" />
  <path
     d="m 599.70937,404.39875 a 97.37869,97.37869 0 0 1 -19.07322,4.9762 c -7.51958,0.88466 -103.94718,-14.15451 -150.834,-24.32806 -31.58664,-6.85167 -35.66943,-14.71185 -34.97051,-19.1086 20.76287,7.09937 88.18264,29.63158 112.378,31.49379 28.75135,2.21164 83.67966,8.36 87.842,4.18 1.6012,-1.61007 3.24223,0.0884 4.65773,2.78667 z"
     id="path82"
     inkscape:connector-curvature="0"
     style="opacity:0.1" />
  <path
     d="m 347.08674,588.51794 42.0212,-191.97054 c 0,0 7.51959,-20.3471 24.77039,-19.46245 l 15.92383,7.96199 c 0,0 -26.53971,-6.1926 -32.29,14.1545 -5.75029,20.3471 -42.46351,189.3165 -42.46351,189.3165 z"
     id="path84"
     inkscape:connector-curvature="0"
     style="fill:#47465a" />
  <polygon
     points="840.136,557.926 822.885,675.143 815.808,675.143 832.616,557.926 "
     id="polygon86"
     style="fill:#47465a"
     transform="translate(-367.86993,-174.20611)" />
  <path
     d="m 608.94517,615.49999 -15.92383,-183.124 c 0,0 0,-15.4815 7.96193,-23.00108 7.9619,-7.51958 33.6649,-28.97011 33.6649,-28.97011 0,0 6.587,-1.55055 11.8949,13.48861 5.308,15.03916 42.0212,165.43083 42.0212,165.43083 l -7.0772,3.0963 -45.5599,-173.3927 -31.4053,29.636 c 0,0 -6.1926,11.05821 -3.0963,21.23176 3.0963,10.17355 14.5968,175.60438 14.5968,175.60438 z"
     id="path88"
     inkscape:connector-curvature="0"
     style="fill:#47465a" />
  <polygon
     points="976.373,582.254 953.372,579.158 927.717,579.158 967.526,590.658 "
     id="polygon90"
     style="fill:#47465a"
     transform="translate(-367.86993,-174.20611)" />
  <path
     d="m 205.94282,82.098114 6.45492,96.823726 141.10276,-13.71218 -5.61479,-94.649386 a 9.51952,9.51952 0 0 0 -10.30071,-8.9223 l -122.94163,10.34088 a 9.51953,9.51953 0 0 0 -8.70055,10.11926 z"
     id="path92"
     inkscape:connector-curvature="0"
     style="fill:#7a799c" />
  <polygon
     points="622.731,383.206 581.595,356.667 581.595,350.916 721.37,338.328 768.7,367.282 628.039,382.627 "
     id="polygon94"
     style="fill:#7a799c"
     transform="translate(-367.86993,-174.20611)" />
  <polygon
     points="581.595,356.667 581.595,351.518 628.039,382.627 622.731,383.206 "
     id="polygon96"
     style="opacity:0.1"
     transform="translate(-367.86993,-174.20611)" />
  <polygon
     points="712.082,330.127 707.658,246.084 583.364,255.373 588.23,341.627 "
     id="polygon98"
     style="fill:#9493b6"
     transform="translate(-367.86993,-174.20611)" />
  <polygon
     points="717.832,371.263 702.35,361.532 657.233,365.513 672.272,375.687 "
     id="polygon100"
     style="opacity:0.1"
     transform="translate(-367.86993,-174.20611)" />
  <polygon
     points="736.41,355.782 714.736,341.627 595.749,353.128 614.769,367.282 "
     id="polygon102"
     style="fill:#9493b6"
     transform="translate(-367.86993,-174.20611)" />
  <rect
     x="443.73547"
     y="48.213802"
     width="89.792671"
     height="89.792671"
     id="rect104"
     style="fill:#ff6584" />
  <rect
     x="443.73547"
     y="48.213802"
     width="89.792671"
     height="89.792671"
     id="rect106"
     style="opacity:0.1" />
  <path
     d="m 474.65907,89.767634 c 0,0 12.66681,34.305946 0,40.639356 -12.66681,6.33341 45.38941,0 45.38941,0 l 16.3613,-13.1946 c 0,0 -36.94487,-10.55568 -31.667,-34.833726 5.27787,-24.27805 -30.08371,7.38897 -30.08371,7.38897 z"
     id="path108"
     inkscape:connector-curvature="0"
     style="fill:#fbbebe" />
  <path
     d="m 474.65907,89.767634 c 0,0 12.66681,34.305946 0,40.639356 -12.66681,6.33341 45.38941,0 45.38941,0 l 16.3613,-13.1946 c 0,0 -36.94487,-10.55568 -31.667,-34.833726 5.27787,-24.27805 -30.08371,7.38897 -30.08371,7.38897 z"
     id="path110"
     inkscape:connector-curvature="0"
     style="opacity:0.1" />
  <path
     d="m 370.6857,433.88268 c 0,0 47.50054,67.02855 39.58378,85.501 -7.91676,18.47245 -3.69448,30.08368 -19.528,36.41708 -15.83352,6.3334 -20.05578,17.94465 -6.3334,17.41687 13.72238,-0.52778 31.667,-4.22227 34.30594,-8.97232 2.63894,-4.75005 8.97233,-27.44476 17.94465,-30.61147 8.97232,-3.16671 25.8614,-15.30575 13.7224,-30.08369 -12.139,-14.77794 -42.7254,-69.21048 -40.36292,-74.71681 2.36248,-5.50633 -39.33245,5.04934 -39.33245,5.04934 z"
     id="path112"
     inkscape:connector-curvature="0"
     style="fill:#fbbebe" />
  <path
     d="m 469.90907,301.40894 c 0,0 -98.16779,6.33341 -123.50142,30.08368 -25.33363,23.75027 22.16692,112.418 27.44476,113.47352 5.27784,1.05552 46.445,-3.1667 44.86162,-14.77794 -1.58338,-11.61124 -29.55589,-59.11179 -29.55589,-59.11179 0,0 36.41708,-13.1946 56.47287,-16.3613 20.05579,-3.1667 42.22271,-17.94465 42.22271,-17.94465 z"
     id="path114"
     inkscape:connector-curvature="0"
     style="fill:#9493b6" />
  <path
     d="m 425.04743,286.631 c 0,0 1.58335,58.584 16.3613,60.69514 14.77795,2.11114 0,-44.86163 0,-44.86163 l -0.52778,-17.94465 z"
     id="path116"
     inkscape:connector-curvature="0"
     style="fill:#fbbebe" />
  <path
     d="m 469.90907,133.04594 c 0,0 -27.44476,-7.91676 -32.7226,13.19459 -5.27784,21.11135 -6.86119,93.94552 -6.86119,93.94552 l -9.50011,58.05622 c 0,0 17.41687,-5.27784 21.11135,-2.63892 l 22.16692,-27.97254 z"
     id="path118"
     inkscape:connector-curvature="0"
     style="fill:#fbb12c" />
  <path
     d="m 469.90907,133.04594 c 0,0 -27.44476,-7.91676 -32.7226,13.19459 -5.27784,21.11135 -6.86119,93.94552 -6.86119,93.94552 l -9.50011,58.05622 c 0,0 17.41687,-5.27784 21.11135,-2.63892 l 22.16692,-27.97254 z"
     id="path120"
     inkscape:connector-curvature="0"
     style="opacity:0.1" />
  <path
     d="m 507.40939,445.12243 c 0,0 18.44475,36.2608 29.52821,35.733 11.08346,-0.5278 21.63914,-7.389 26.917,14.25016 5.27786,21.63916 -1.05556,15.83352 5.27784,28.50033 6.3334,12.66681 7.389,34.83373 -4.75,40.11157 -12.139,5.27784 -23.22249,5.80562 -23.75027,0 -0.52778,-5.80562 10.55567,-5.80562 -2.11114,-26.38919 -12.66681,-20.58357 -39.58378,-58.05622 -50.66724,-61.75071 -11.08346,-3.69449 19.5556,-30.45516 19.5556,-30.45516 z"
     id="path122"
     inkscape:connector-curvature="0"
     style="fill:#fbbebe" />
  <path
     d="m 555.41007,279.76981 c 0,0 38.00044,63.33406 13.1946,81.80649 -24.80584,18.47243 -98.69557,53.834 -98.69557,53.834 0,0 39.58378,26.917 41.69492,35.8893 2.11114,8.9723 -19.00022,33.25038 -26.38919,33.77816 -7.38897,0.52778 -29.02811,-24.27805 -52.2506,-30.61146 -23.22249,-6.33341 -37.47265,-51.72281 -12.139,-68.6119 25.33365,-16.88909 49.0839,-44.86162 49.0839,-44.86162 l -7.3847,-40.63369 z"
     id="path124"
     inkscape:connector-curvature="0"
     style="fill:#9493b6" />
  <path
     d="m 522.46996,68.560944 c 0,22.44449 -22.99133,40.998626 -45.43582,40.998626 a 40.639355,40.639355 0 1 1 0,-81.278706 c 22.44449,-4e-5 45.43582,17.83554 45.43582,40.28008 z"
     id="path126"
     inkscape:connector-curvature="0"
     style="fill:#fbbebe" />
  <path
     d="m 487.32592,127.24028 c 0,0 36.41708,-15.83351 36.41708,-17.94465 0,-2.11114 21.11136,4.75006 25.86141,8.97233 4.75005,4.22227 7.389,3.69449 10.55568,12.139 3.16668,8.44451 -15.83352,87.08433 -15.83352,87.08433 0,0 10.55568,60.69514 16.3613,66.50076 5.80562,5.80562 -46.9728,14.25019 -46.9728,14.25019 0,0 -34.83373,6.33341 -40.63935,8.97233 -5.80562,2.63892 -16.3613,6.3334 -14.25016,0 2.11114,-6.3334 11.08346,-11.08346 -4.22228,-19.00022 0,0 5.27784,-25.86141 0,-37.47265 -5.27784,-11.61124 -29.55589,-53.834 -10.02789,-84.44541 19.528,-30.61141 28.50033,-41.69493 28.50033,-41.69493 0,0 6.86123,5.80563 14.2502,2.63892 z"
     id="path128"
     inkscape:connector-curvature="0"
     style="fill:#fbb12c" />
  <path
     d="m 498.93717,271.32527 c 0,0 -41.1671,18.2588 -53.5701,19.94897 -12.403,1.69017 -49.87557,11.19027 -29.292,19.63481 20.58357,8.44454 51.72281,-4.22227 51.72281,-4.22227 l 43.80606,-18.47243 z"
     id="path130"
     inkscape:connector-curvature="0"
     style="fill:#fbbebe" />
  <path
     d="m 543.2594,125.62127 c 0,0 15.20178,-7.35331 19.424,18.5081 4.22222,25.86141 19.00022,107.66789 0,119.80692 -19.00022,12.13903 -62.80628,31.667 -62.80628,31.667 0,0 -25.8614,-17.41686 -13.72237,-23.75027 12.13903,-6.33341 41.16713,-24.27806 45.3894,-30.61146 4.22227,-6.3334 8.48829,-77.027 1.09932,-88.63829 -7.38897,-11.61129 10.61593,-26.982 10.61593,-26.982 z"
     id="path132"
     inkscape:connector-curvature="0"
     style="opacity:0.1" />
  <path
     d="m 542.21544,119.32353 c 0,0 21.11135,-1.05557 25.33362,24.80584 4.22227,25.86141 19.00022,107.66789 0,119.80692 -19.00022,12.13903 -62.80627,31.667 -62.80627,31.667 0,0 -25.86141,-17.41686 -13.72238,-23.75027 12.13903,-6.33341 41.16714,-24.27806 45.38941,-30.61146 4.22227,-6.3334 -3.16675,-72.30635 -10.55568,-83.91762 -7.38893,-11.61127 16.3613,-38.00041 16.3613,-38.00041 z"
     id="path134"
     inkscape:connector-curvature="0"
     style="fill:#fbb12c" />
  <path
     d="M 467.0237,0.50878403 C 460.54433,1.390574 453.59463,3.760784 450.33434,9.429154 c -1.59532,2.77365 -2.11107,6.02743 -3.34,8.98173 -3.39144,8.15262 -11.628,13.02111 -17.57449,19.54846 -7.7497,8.50671 -11.59829,21.32569 -7.02776,31.88657 1.76985,4.08952 4.64406,7.59294 6.82374,11.47953 6.081,10.84307 6.40545,23.865406 6.5784,36.296046 l 0.34006,24.4413 c 0.0519,3.73208 0.0934,7.53953 -1.0303,11.09882 -1.12366,3.55929 -3.63293,6.89273 -7.19212,8.01668 a 18.64007,18.64007 0 0 0 21.70774,-7.41277 19.04939,19.04939 0 0 1 -5.82228,16.89942 c 9.676,-2.27871 17.79017,-9.31636 22.90211,-17.84195 5.11194,-8.52559 7.4824,-18.44239 8.54471,-28.32617 0.56186,-5.22762 0.75986,-10.63308 -0.8917,-15.62468 -1.16321,-3.51566 -3.1921,-6.66756 -5.1182,-9.830316 -4.96553,-8.15368 -9.43689,-16.82614 -11.03719,-26.23773 -1.6003,-9.41159 0.006,-19.738 6.11766,-27.07224 a 24.45445,24.45445 0 0 1 19.315,-8.85635 21.50289,21.50289 0 0 1 17.9282,10.97538 c 1.4118,2.65764 3.42145,6.25954 6.28226,5.32575 a 15.52284,15.52284 0 0 0 1.549,-0.76054 c 3.19044,-1.45194 6.81442,1.41256 8.22125,4.62315 4.43733,10.12665 -3.73777,21.18131 -4.58276,32.20513 -0.786,10.25474 4.93126,19.926126 11.76532,27.611996 a 90.71726,90.71726 0 0 0 44.35273,27.24968 12.44917,12.44917 0 0 1 -6.4337,-3.99663 84.47007,84.47007 0 0 0 20.75653,-1.74 c -7.42625,-5.59639 -14.90482,-11.24044 -21.10471,-18.17083 -6.19989,-6.93039 -11.1103,-15.316 -12.44738,-24.518196 -1.79441,-12.34986 2.80533,-25.72347 -2.45361,-37.04082 -4.80791,-10.34671 -16.73195,-16.12851 -21.0866,-26.674 -4.42322,-10.71155 -7.29082,-20.01739 -19.00212,-24.68049 -12.78194,-5.08939 -26.54035,-8.65575 -40.35043,-6.77629997 z"
     id="path136"
     inkscape:connector-curvature="0"
     style="fill:#ff6584" />
</svg>
